@startuml Apdu communcation
Initiator --> Recipient:  Select AID F0007182738123
Initiator <-- Recipient: OK 0x24

Initiator --> Recipient: STEAL (power, wallet-id)
Initiator <-- Recipient: STOLEN (amount, wallet-id)

Initiator --> Recipient: STEAL (power, wallet-id)
Initiator <-- Recipient: STOLEN (amount, wallet-id

Initiator --> Recipient: STEAL (power, wallet-id)
Initiator <-- Recipient: STOLEN (amount = 0, wallet-id)

Initiator --> Recipient: DISCONNECT
@enduml
